{"totalCount":5,"limit":1,"offset":0,"pageCount":5,"items":[{"orderNumber":"4323752771","lineItemId":"698d92d2-fc49-57da-cf84-c72d06060606","cancelDate":"2026-02-12T12:18:03.661","cancelledBy":"Merchant","cancelReasonCode":"WrongBarcode","merchantId":"f225561c-5ae7-4208-9eb4-3541340b7229","quantity":1,"sku":"HBV00000XOY13","merchantSku":"LMKFS12"}]}

